%YAML 1.1
%TAG !u! tag:unity3d.com,2011:
--- !u!114 &11400000
MonoBehaviour:
  m_ObjectHideFlags: 0
  m_CorrespondingSourceObject: {fileID: 0}
  m_PrefabInstance: {fileID: 0}
  m_PrefabAsset: {fileID: 0}
  m_GameObject: {fileID: 0}
  m_Enabled: 1
  m_EditorHideFlags: 0
  m_Script: {fileID: 11500000, guid: a3cb4fa5540736641a31b13b771429dd, type: 3}
  m_Name: Shield
  m_EditorClassIdentifier: 
  m_initialValue: 100
  m_runtimeValue: 100
  m_initialMin: 0
  m_intialMax: 100
