%YAML 1.1
%TAG !u! tag:unity3d.com,2011:
--- !u!114 &11400000
MonoBehaviour:
  m_ObjectHideFlags: 0
  m_CorrespondingSourceObject: {fileID: 0}
  m_PrefabInstance: {fileID: 0}
  m_PrefabAsset: {fileID: 0}
  m_GameObject: {fileID: 0}
  m_Enabled: 1
  m_EditorHideFlags: 0
  m_Script: {fileID: 11500000, guid: f575efe06dfdede4289b915dadfdc83a, type: 3}
  m_Name: Engine0
  m_EditorClassIdentifier: 
  TileSprite: {fileID: 21300000, guid: 6042c11336cc89648b25b6881713e078, type: 3}
  TileAssociatedPrefab: {fileID: 0}
  m_modifiers:
  - {fileID: 11400000, guid: fc317e3d7d9957f49bf3810300a14dec, type: 2}
  PrefabLocalOffset: 0.5
  prefabZOffset: -1
