%YAML 1.1
%TAG !u! tag:unity3d.com,2011:
--- !u!114 &11400000
MonoBehaviour:
  m_ObjectHideFlags: 0
  m_CorrespondingSourceObject: {fileID: 0}
  m_PrefabInstance: {fileID: 0}
  m_PrefabAsset: {fileID: 0}
  m_GameObject: {fileID: 0}
  m_Enabled: 1
  m_EditorHideFlags: 0
  m_Script: {fileID: 11500000, guid: 863874971f252bc45af00312ac4fc6aa, type: 3}
  m_Name: Energy
  m_EditorClassIdentifier: 
  m_type: 0
  m_cargoColor: {r: 0.6392157, g: 0.8392157, b: 1, a: 1}
