%YAML 1.1
%TAG !u! tag:unity3d.com,2011:
--- !u!114 &11400000
MonoBehaviour:
  m_ObjectHideFlags: 0
  m_CorrespondingSourceObject: {fileID: 0}
  m_PrefabInstance: {fileID: 0}
  m_PrefabAsset: {fileID: 0}
  m_GameObject: {fileID: 0}
  m_Enabled: 1
  m_EditorHideFlags: 0
  m_Script: {fileID: 11500000, guid: b53c81d11a5b79841b32370079438d97, type: 3}
  m_Name: Spawn Factory
  m_EditorClassIdentifier: Assembly-CSharp::SpaceSpawnFactory
  m_spawns:
  - name: Space
    m_weight: 50
    m_spawnPrefab: {fileID: 0}
  - name: Meteor
    m_weight: 40
    m_spawnPrefab: {fileID: 8808093327944424140, guid: 000eb6ba16b33ec43a51ea26cbfe37f1,
      type: 3}
  - name: Pickup
    m_weight: 10
    m_spawnPrefab: {fileID: 6353082721908739033, guid: c203da737ddd55a4d982551c5e9ca6d9,
      type: 3}
