%YAML 1.1
%TAG !u! tag:unity3d.com,2011:
--- !u!114 &11400000
MonoBehaviour:
  m_ObjectHideFlags: 0
  m_CorrespondingSourceObject: {fileID: 0}
  m_PrefabInstance: {fileID: 0}
  m_PrefabAsset: {fileID: 0}
  m_GameObject: {fileID: 0}
  m_Enabled: 1
  m_EditorHideFlags: 0
  m_Script: {fileID: 11500000, guid: f575efe06dfdede4289b915dadfdc83a, type: 3}
  m_Name: OpenCargo
  m_EditorClassIdentifier: 
  TileSprite: {fileID: 21300000, guid: 3018d9e6fea38c94bbc215b59d5199be, type: 3}
  TileAssociatedPrefab: {fileID: 0}
  m_modifiers: []
  PrefabLocalOffset: 0.5
  prefabZOffset: -1
